<!--

      Copyright 2018, Cordite Foundation.

       Licensed under the Apache License, Version 2.0 (the "License");
       you may not use this file except in compliance with the License.
       You may obtain a copy of the License at

         http://www.apache.org/licenses/LICENSE-2.0

       Unless required by applicable law or agreed to in writing, software
       distributed under the License is distributed on an "AS IS" BASIS,
       WITHOUT WARRANTIES OR CONDITIONS OF ANY KIND, either express or implied.
       See the License for the specific language governing permissions and
       limitations under the License.

-->
@startuml

group Metering showing cascading notarisation
Alice -> Bob : Sends Tx1
Alice -> RedNotary : Notarise Tx1
RedNotary -> Alice : Send Invoice(1) for Tx1
RedNotary -> GreenNotary : Notarise Invoice(1) for Tx1
Alice -> RedNotary : Pay Invoice(1) for Tx1
Alice -> GreenNotary: Notarises Invoice(1) Payment
GreenNotary -> RedNotary : Sends Invoice(2) for Notarision of Invoice(1)
GreenNotary -> Blue1Notary : Notarises Invoice(2)
RedNotary -> GreenNotary : Pays Invoice(2)
RedNotary -> Blue1Notary : Notarises Invoice(2) Payment
Blue1Notary -> GreenNotary : Sends Invoice(3) for Notarising Invoice(2)
Blue1Notary -> Blue2Notary : Notarises Invoice(3)
GreenNotary -> Blue1Notary : Pays Invoice(3)
GreenNotary -> Blue2Notary : Notarises Invoice(3) Payment
Blue2Notary -> Blue2Notary : Does Not Charge for Invoice(3)
Blue1Notary -> RedNotary : Sends Invoice(4) for Payment of Invoice(2)
Blue1Notary -> Blue2Notary : Notarises Invoice(4)
RedNotary -> Blue1Notary : Pays Invoice(4)
RedNotary -> Blue2Notary : Notarises Invoice(4) Payment
Blue2Notary -> Blue2Notary : Does Not Charge for Invoice(4)
end group

@enduml